traffic_light/traffic_light_controller.vcd
$date
	Tue May  6 16:49:01 2025
$end
$version
	Icarus Verilog
$end
$timescale
	1ms
$end
$scope module traffic_light_controller_tb $end
$var wire 1 ! buzzer $end
$var wire 1 " T2_WALK $end
$var wire 2 # T2 [1:0] $end
$var wire 1 $ T1_WALK $end
$var wire 2 % T1 [1:0] $end
$var reg 1 & Emergency_Left $end
$var reg 1 ' Emergency_Right $end
$var reg 48 ( T1_str [48:1] $end
$var reg 48 ) T2_str [48:1] $end
$var reg 1 * clk $end
$var reg 1 + reset $end
$scope module uut $end
$var wire 1 & Emergency_Left $end
$var wire 1 ' Emergency_Right $end
$var wire 1 * clk $end
$var wire 1 + reset $end
$var parameter 3 , S1 $end
$var parameter 3 - S2 $end
$var parameter 3 . S3 $end
$var parameter 3 / S4 $end
$var parameter 3 0 S5 $end
$var parameter 3 1 S6 $end
$var parameter 3 2 S7 $end
$var reg 2 3 T1 [1:0] $end
$var reg 1 $ T1_WALK $end
$var reg 2 4 T2 [1:0] $end
$var reg 1 " T2_WALK $end
$var reg 1 ! buzzer $end
$var reg 4 5 buzzer_timer [3:0] $end
$var reg 3 6 current_state [2:0] $end
$var reg 3 7 next_state [2:0] $end
$var reg 7 8 timer [6:0] $end
$upscope $end
$upscope $end
$enddefinitions $end
$comment Show the parameter values. $end
$dumpall
b111 2
b110 1
b101 0
b100 /
b11 .
b10 -
b1 ,
$end
#0
$dumpvars
b0 8
b10 7
b1 6
b0 5
bx 4
bx 3
1+
0*
bx )
bx (
0'
0&
bx %
x$
bx #
x"
x!
$end
#500
1*
#1000
0*
#1500
1*
#2000
0*
#2500
1*
#3000
0*
#3500
1*
#4000
0*
#4500
1*
#5000
0*
#5500
1*
#6000
0*
#6500
1*
#7000
0*
#7500
1*
#8000
0*
#8500
1*
#9000
0*
#9500
1*
#10000
0*
#10500
1*
#11000
0*
#11500
1*
#12000
0*
#12500
1*
#13000
0*
#13500
1*
#14000
0*
#14500
1*
#15000
0*
#15500
1*
#16000
0*
#16500
1*
#17000
0*
#17500
1*
#18000
0*
#18500
1*
#19000
0*
#19500
1*
#20000
0*
0+
#20500
b1010010 )
b1000111 (
b1 8
0!
0"
0$
b10 #
b10 4
b0 %
b0 3
1*
#21000
0*
#21500
b10 8
1*
#22000
0*
#22500
b11 8
1*
#23000
0*
#23500
b100 8
1*
#24000
0*
#24500
b101 8
1*
#25000
0*
#25500
b110 8
1*
#26000
0*
#26500
b111 8
1*
#27000
0*
#27500
b1000 8
1*
#28000
0*
#28500
b1001 8
1*
#29000
0*
#29500
b1010 8
1*
#30000
0*
#30500
b1011 8
1*
#31000
0*
#31500
b1100 8
1*
#32000
0*
#32500
b1101 8
1*
#33000
0*
#33500
b1110 8
1*
#34000
0*
#34500
b1111 8
1*
#35000
0*
#35500
b10000 8
1*
#36000
0*
#36500
b10001 8
1*
#37000
0*
#37500
b10010 8
1*
#38000
0*
#38500
b10011 8
1*
#39000
0*
#39500
b10100 8
1*
#40000
0*
#40500
b10101 8
1*
#41000
0*
#41500
b10110 8
1*
#42000
0*
#42500
b10111 8
1*
#43000
0*
#43500
b11000 8
1*
#44000
0*
#44500
b11001 8
1*
#45000
0*
#45500
b11010 8
1*
#46000
0*
#46500
b11011 8
1*
#47000
0*
#47500
b11100 8
1*
#48000
0*
#48500
b11101 8
1*
#49000
0*
#49500
b11110 8
1*
#50000
0*
#50500
b11 7
b10 6
b0 8
1*
#51000
0*
#51500
b1011001 (
b1 8
b1 %
b1 3
1*
#52000
0*
#52500
b10 8
1*
#53000
0*
#53500
b11 8
1*
#54000
0*
#54500
b100 8
1*
#55000
0*
#55500
b101 8
1*
#56000
0*
#56500
b100 7
b11 6
b0 8
1*
#57000
0*
#57500
b1010010 (
b1 8
1"
1$
b10 %
b10 3
1*
#58000
0*
#58500
b10 8
1*
#59000
0*
#59500
b11 8
1*
#60000
0*
#60500
b100 8
1*
#61000
0*
#61500
b101 8
1*
#62000
0*
#62500
b110 8
1*
#63000
0*
#63500
b111 8
1*
#64000
0*
#64500
b1000 8
1*
#65000
0*
#65500
b1001 8
1*
#66000
0*
#66500
b1010 8
1*
#67000
0*
#67500
b1011 8
1*
#68000
0*
#68500
b1100 8
1*
#69000
0*
#69500
b1101 8
1*
#70000
0*
#70500
b1110 8
1*
#71000
0*
#71500
b1111 8
1*
#72000
0*
#72500
b10000 8
1*
#73000
0*
#73500
b10001 8
1*
#74000
0*
#74500
b10010 8
1*
#75000
0*
#75500
b10011 8
1*
#76000
0*
#76500
b10100 8
1*
#77000
0*
#77500
b10101 8
1*
#78000
0*
#78500
b10110 8
1*
#79000
0*
#79500
b10111 8
1*
#80000
0*
#80500
b11000 8
1*
#81000
0*
#81500
b11001 8
1*
#82000
0*
#82500
b11010 8
1*
#83000
0*
#83500
b11011 8
1*
#84000
0*
#84500
b11100 8
1*
#85000
0*
#85500
b11101 8
1*
#86000
0*
#86500
b11110 8
1*
#87000
0*
#87500
b1 5
1!
b11111 8
1*
#88000
0*
#88500
b10 5
b100000 8
1*
#89000
0*
#89500
b11 5
b100001 8
1*
#90000
0*
#90500
b100 5
b100010 8
1*
#91000
0*
#91500
b101 5
b100011 8
1*
#92000
0*
#92500
b101 7
b100 6
b0 8
1*
#93000
0*
#93500
b1 8
1*
#94000
0*
#94500
b10 8
1*
#95000
0*
#95500
b11 8
1*
#96000
0*
#96500
b100 8
1*
#97000
0*
#97500
b101 8
1*
#98000
0*
#98500
0!
b110 8
1*
#99000
0*
#99500
b111 8
1*
#100000
0*
#100500
b1000 8
1*
#101000
0*
#101500
b1001 8
1*
#102000
0*
#102500
b1010 8
1*
#103000
0*
#103500
b1011 8
1*
#104000
0*
#104500
b1100 8
1*
#105000
0*
#105500
b1101 8
1*
#106000
0*
#106500
b1110 8
1*
#107000
0*
#107500
b1111 8
1*
#108000
0*
#108500
b10000 8
1*
#109000
0*
#109500
b10001 8
1*
#110000
0*
#110500
b10010 8
1*
#111000
0*
#111500
b10011 8
1*
#112000
0*
#112500
b10100 8
1*
#113000
0*
#113500
b10101 8
1*
#114000
0*
#114500
b10110 8
1*
#115000
0*
#115500
b10111 8
1*
#116000
0*
#116500
b11000 8
1*
#117000
0*
#117500
b11001 8
1*
#118000
0*
#118500
b11010 8
1*
#119000
0*
#119500
b11011 8
1*
#120000
0*
#120500
b11100 8
1*
#121000
0*
#121500
b11101 8
1*
#122000
0*
#122500
b11110 8
1*
#123000
0*
#123500
b11111 8
1*
#124000
0*
#124500
b100000 8
1*
#125000
0*
#125500
b100001 8
1*
#126000
0*
#126500
b100010 8
1*
#127000
0*
#127500
b100011 8
1*
#128000
0*
#128500
b100100 8
1*
#129000
0*
#129500
b100101 8
1*
#130000
0*
#130500
b100110 8
1*
#131000
0*
#131500
b100111 8
1*
#132000
0*
#132500
b101000 8
1*
#133000
0*
#133500
b101001 8
1*
#134000
0*
#134500
b101010 8
1*
#135000
0*
#135500
b101011 8
1*
#136000
0*
#136500
b101100 8
1*
#137000
0*
#137500
b101101 8
1*
#138000
0*
#138500
b101110 8
1*
#139000
0*
#139500
b101111 8
1*
#140000
0*
#140500
b110000 8
1*
#141000
0*
#141500
b110001 8
1*
#142000
0*
#142500
b110010 8
1*
#143000
0*
#143500
b110011 8
1*
#144000
0*
#144500
b110100 8
1*
#145000
0*
#145500
b110101 8
1*
#146000
0*
#146500
b110110 8
1*
#147000
0*
#147500
b110111 8
1*
#148000
0*
#148500
b110 7
b101 6
b0 8
1*
#149000
0*
#149500
b1000111 )
b1 8
0"
0$
b0 #
b0 4
1*
#150000
0*
#150500
b10 8
1*
#151000
0*
#151500
b11 8
1*
#152000
0*
#152500
b100 8
1*
#153000
0*
#153500
b101 8
1*
#154000
0*
#154500
b110 8
1*
#155000
0*
#155500
b111 8
1*
#156000
0*
#156500
b1000 8
1*
#157000
0*
#157500
b1001 8
1*
#158000
0*
#158500
b1010 8
1*
#159000
0*
#159500
b1011 8
1*
#160000
0*
#160500
b1100 8
1*
#161000
0*
#161500
b1101 8
1*
#162000
0*
#162500
b1110 8
1*
#163000
0*
#163500
b1111 8
1*
#164000
0*
#164500
b10000 8
1*
#165000
0*
#165500
b10001 8
1*
#166000
0*
#166500
b10010 8
1*
#167000
0*
#167500
b10011 8
1*
#168000
0*
#168500
b10100 8
1*
#169000
0*
#169500
b10101 8
1*
#170000
0*
#170500
b10110 8
1*
#171000
0*
#171500
b10111 8
1*
#172000
0*
#172500
b11000 8
1*
#173000
0*
#173500
b11001 8
1*
#174000
0*
#174500
b11010 8
1*
#175000
b10 7
b0 5
b0 8
b1 6
0*
1+
#175500
1*
#176000
0*
#176500
1*
#177000
0*
#177500
1*
#178000
0*
#178500
1*
#179000
0*
#179500
1*
#180000
0*
#180500
1*
#181000
0*
#181500
1*
#182000
0*
#182500
1*
#183000
0*
#183500
1*
#184000
0*
#184500
1*
#185000
0*
#185500
1*
#186000
0*
#186500
1*
#187000
0*
#187500
1*
#188000
0*
#188500
1*
#189000
0*
#189500
1*
#190000
0*
#190500
1*
#191000
0*
#191500
1*
#192000
0*
#192500
1*
#193000
0*
#193500
1*
#194000
0*
#194500
1*
#195000
0*
0+
#195500
b1010010 )
b1000111 (
b1 8
b10 #
b10 4
b0 %
b0 3
1*
#196000
0*
#196500
b10 8
1*
#197000
0*
1&
#197500
b1000111 )
b1010010 (
b11 8
b0 #
b0 4
b10 %
b10 3
1*
#198000
0*
#198500
b100 8
1*
#199000
0*
#199500
b101 8
1*
#200000
0*
#200500
b110 8
1*
#201000
0*
#201500
b111 8
1*
#202000
0*
#202500
b1000 8
1*
#203000
0*
#203500
b1001 8
1*
#204000
0*
#204500
b1010 8
1*
#205000
0*
#205500
b11 7
b10 6
b0 8
1*
#206000
0*
#206500
b1 8
1*
#207000
0*
0&
#207500
b1010010 )
b1011001 (
b10 8
b10 #
b10 4
b1 %
b1 3
1*
#208000
0*
#208500
b11 8
1*
#209000
0*
#209500
b100 8
1*
#210000
0*
#210500
b101 8
1*
#211000
0*
#211500
b100 7
b11 6
b0 8
1*
#212000
0*
#212500
b1010010 (
b1 8
1"
1$
b10 %
b10 3
1*
#213000
0*
#213500
b10 8
1*
#214000
0*
#214500
b11 8
1*
#215000
0*
#215500
b100 8
1*
#216000
0*
#216500
b101 8
1*
#217000
0*
#217500
b110 8
1*
#218000
0*
#218500
b111 8
1*
#219000
0*
#219500
b1000 8
1*
#220000
0*
#220500
b1001 8
1*
#221000
0*
#221500
b1010 8
1*
#222000
0*
#222500
b1011 8
1*
#223000
0*
#223500
b1100 8
1*
#224000
0*
#224500
b1101 8
1*
#225000
0*
#225500
b1110 8
1*
#226000
0*
#226500
b1111 8
1*
#227000
0*
#227500
b10000 8
1*
#228000
0*
#228500
b10001 8
1*
#229000
0*
#229500
b10010 8
1*
#230000
0*
#230500
b10011 8
1*
#231000
0*
#231500
b10100 8
1*
#232000
0*
#232500
b10101 8
1*
#233000
0*
#233500
b10110 8
1*
#234000
0*
#234500
b10111 8
1*
#235000
0*
#235500
b11000 8
1*
#236000
0*
#236500
b11001 8
1*
#237000
0*
#237500
b11010 8
1*
#238000
0*
#238500
b11011 8
1*
#239000
0*
#239500
b11100 8
1*
#240000
0*
#240500
b11101 8
1*
#241000
0*
#241500
b11110 8
1*
#242000
0*
1'
#242500
b101 7
b100 6
b0 8
0"
0$
1*
#243000
0*
#243500
b1 8
1*
#244000
0*
#244500
b10 8
1*
#245000
0*
#245500
b11 8
1*
#246000
0*
#246500
b100 8
1*
#247000
0*
#247500
b101 8
1*
#248000
0*
#248500
b110 8
1*
#249000
0*
#249500
b111 8
1*
#250000
0*
#250500
b1000 8
1*
#251000
0*
#251500
b1001 8
1*
#252000
0*
0'
#252500
b1010 8
1"
1$
1*
#253000
0*
#253500
b1011 8
1*
#254000
0*
#254500
b1100 8
1*
#255000
0*
#255500
b1101 8
1*
#256000
0*
#256500
b1110 8
1*
#257000
0*
#257500
b1111 8
1*
#258000
0*
#258500
b10000 8
1*
#259000
0*
#259500
b10001 8
1*
#260000
0*
#260500
b10010 8
1*
#261000
0*
#261500
b10011 8
1*
#262000
0*
#262500
b10100 8
1*
#263000
0*
#263500
b10101 8
1*
#264000
0*
#264500
b10110 8
1*
#265000
0*
#265500
b10111 8
1*
#266000
0*
#266500
b11000 8
1*
#267000
0*
#267500
b11001 8
1*
#268000
0*
#268500
b11010 8
1*
#269000
0*
#269500
b11011 8
1*
#270000
0*
#270500
b11100 8
1*
#271000
0*
#271500
b11101 8
1*
#272000
0*
#272500
b11110 8
1*
#273000
0*
#273500
b11111 8
1*
#274000
0*
#274500
b100000 8
1*
#275000
0*
#275500
b100001 8
1*
#276000
0*
#276500
b100010 8
1*
#277000
0*
#277500
b100011 8
1*
#278000
0*
#278500
b100100 8
1*
#279000
0*
#279500
b100101 8
1*
#280000
0*
#280500
b100110 8
1*
#281000
0*
#281500
b100111 8
1*
#282000
0*
#282500
b101000 8
1*
#283000
0*
#283500
b101001 8
1*
#284000
0*
#284500
b101010 8
1*
#285000
0*
#285500
b101011 8
1*
#286000
0*
#286500
b101100 8
1*
#287000
0*
#287500
b101101 8
1*
#288000
0*
#288500
b101110 8
1*
#289000
0*
#289500
b101111 8
1*
#290000
0*
#290500
b110000 8
1*
#291000
0*
#291500
b110001 8
1*
#292000
0*
#292500
b110010 8
1*
#293000
0*
#293500
b110011 8
1*
#294000
0*
#294500
b110100 8
1*
#295000
0*
#295500
b110101 8
1*
#296000
0*
#296500
b110110 8
1*
#297000
0*
#297500
b110111 8
1*
#298000
0*
#298500
b110 7
b101 6
b0 8
1*
#299000
0*
#299500
b1000111 )
b1 8
0"
0$
b0 #
b0 4
1*
#300000
0*
#300500
b10 8
1*
#301000
0*
#301500
b11 8
1*
#302000
0*
#302500
b100 8
1*
#303000
0*
#303500
b101 8
1*
#304000
0*
#304500
b110 8
1*
#305000
0*
#305500
b111 8
1*
#306000
0*
#306500
b1000 8
1*
#307000
0*
#307500
b1001 8
1*
#308000
0*
#308500
b1010 8
1*
#309000
0*
#309500
b1011 8
1*
#310000
0*
#310500
b1100 8
1*
#311000
0*
#311500
b1101 8
1*
#312000
0*
#312500
b1110 8
1*
#313000
0*
#313500
b1111 8
1*
#314000
0*
#314500
b10000 8
1*
#315000
0*
#315500
b10001 8
1*
#316000
0*
#316500
b10010 8
1*
#317000
0*
#317500
b10011 8
1*
#318000
0*
#318500
b10100 8
1*
#319000
0*
#319500
b10101 8
1*
#320000
0*
#320500
b10110 8
1*
#321000
0*
#321500
b10111 8
1*
#322000
0*
#322500
b11000 8
1*
#323000
0*
#323500
b11001 8
1*
#324000
0*
#324500
b11010 8
1*
#325000
0*
#325500
b11011 8
1*
#326000
0*
#326500
b11100 8
1*
#327000
0*
#327500
b11101 8
1*
#328000
0*
#328500
b11110 8
1*
#329000
0*
#329500
b111 7
b110 6
b0 8
1*
#330000
0*
#330500
b1011001 )
b1 8
b1 #
b1 4
1*
#331000
0*
#331500
b10 8
1*
#332000
0*
#332500
b11 8
1*
#333000
0*
#333500
b100 8
1*
#334000
0*
#334500
b101 8
1*
#335000
0*
#335500
b1 7
b111 6
b0 8
1*
#336000
0*
#336500
b1010010 )
b1000111 (
b1 8
b10 #
b10 4
b0 %
b0 3
1*
#337000
0*
#337500
b10 8
1*
#338000
0*
#338500
b11 8
1*
#339000
0*
#339500
b100 8
1*
#340000
0*
#340500
b101 8
1*
#341000
0*
#341500
b110 8
1*
#342000
0*
#342500
b111 8
1*
#343000
0*
#343500
b1000 8
1*
#344000
0*
#344500
b1001 8
1*
#345000
0*
#345500
b1010 8
1*
#346000
0*
#346500
b1011 8
1*
#347000
0*
#347500
b1100 8
1*
#348000
0*
#348500
b1101 8
1*
#349000
0*
#349500
b1110 8
1*
#350000
0*
#350500
b1111 8
1*
#351000
0*
#351500
b10000 8
1*
#352000
0*
#352500
b10001 8
1*
#353000
0*
#353500
b10010 8
1*
#354000
0*
#354500
b10011 8
1*
#355000
0*
#355500
b10100 8
1*
#356000
0*
#356500
b10101 8
1*
#357000
0*
#357500
b10110 8
1*
#358000
0*
#358500
b10111 8
1*
#359000
0*
#359500
b11000 8
1*
#360000
0*
#360500
b11001 8
1*
#361000
0*
#361500
b11010 8
1*
#362000
0*
#362500
b11011 8
1*
#363000
0*
#363500
b11100 8
1*
#364000
0*
#364500
b11101 8
1*
#365000
0*
#365500
b11110 8
1*
#366000
0*
#366500
b10 7
b1 6
b0 8
1*
#367000
0*
#367500
b1 8
1*
#368000
0*
#368500
b10 8
1*
#369000
0*
#369500
b11 8
1*
#370000
0*
#370500
b100 8
1*
#371000
0*
#371500
b101 8
1*
#372000
0*
#372500
b110 8
1*
#373000
0*
#373500
b111 8
1*
#374000
0*
#374500
b1000 8
1*
#375000
0*
#375500
b1001 8
1*
#376000
0*
#376500
b1010 8
1*
#377000
0*
#377500
b1011 8
1*
#378000
0*
#378500
b1100 8
1*
#379000
0*
#379500
b1101 8
1*
#380000
0*
#380500
b1110 8
1*
#381000
0*
#381500
b1111 8
1*
#382000
0*
#382500
b10000 8
1*
#383000
0*
#383500
b10001 8
1*
#384000
0*
#384500
b10010 8
1*
#385000
0*
#385500
b10011 8
1*
#386000
0*
#386500
b10100 8
1*
#387000
0*
#387500
b10101 8
1*
#388000
0*
#388500
b10110 8
1*
#389000
0*
#389500
b10111 8
1*
#390000
0*
#390500
b11000 8
1*
#391000
0*
#391500
b11001 8
1*
#392000
0*
#392500
b11010 8
1*
#393000
0*
#393500
b11011 8
1*
#394000
0*
#394500
b11100 8
1*
#395000
0*
#395500
b11101 8
1*
#396000
0*
#396500
b11110 8
1*
#397000
0*
1'
#397500
b11 7
b1010010 (
b10 6
b0 8
b10 %
b10 3
1*
#398000
0*
#398500
b1 8
1*
#399000
0*
#399500
b10 8
1*
#400000
0*
#400500
b11 8
1*
#401000
0*
#401500
b100 8
1*
#402000
0*
#402500
b101 8
1*
#403000
0*
#403500
b110 8
1*
#404000
0*
#404500
b111 8
1*
#405000
0*
#405500
b1000 8
1*
#406000
0*
#406500
b1001 8
1*
#407000
0*
0'
#407500
b100 7
b1011001 (
b11 6
b0 8
b1 %
b1 3
1*
#408000
0*
#408500
b1010010 (
b1 8
1"
1$
b10 %
b10 3
1*
#409000
0*
#409500
b10 8
1*
#410000
0*
#410500
b11 8
1*
#411000
0*
#411500
b100 8
1*
#412000
0*
#412500
b101 8
1*
#413000
0*
#413500
b110 8
1*
#414000
0*
#414500
b111 8
1*
#415000
0*
#415500
b1000 8
1*
#416000
0*
#416500
b1001 8
1*
#417000
0*
#417500
b1010 8
1*
#418000
0*
#418500
b1011 8
1*
#419000
0*
#419500
b1100 8
1*
#420000
0*
#420500
b1101 8
1*
#421000
0*
#421500
b1110 8
1*
#422000
0*
#422500
b1111 8
1*
#423000
0*
#423500
b10000 8
1*
#424000
0*
#424500
b10001 8
1*
#425000
0*
#425500
b10010 8
1*
#426000
0*
#426500
b10011 8
1*
#427000
0*
#427500
b10100 8
1*
#428000
0*
#428500
b10101 8
1*
#429000
0*
#429500
b10110 8
1*
#430000
0*
#430500
b10111 8
1*
#431000
0*
#431500
b11000 8
1*
#432000
0*
#432500
b11001 8
1*
#433000
0*
#433500
b11010 8
1*
#434000
0*
#434500
b11011 8
1*
#435000
0*
#435500
b11100 8
1*
#436000
0*
#436500
b11101 8
1*
#437000
0*
#437500
b11110 8
1*
#438000
0*
#438500
b1 5
1!
b11111 8
1*
#439000
0*
#439500
b10 5
b100000 8
1*
#440000
0*
#440500
b11 5
b100001 8
1*
#441000
0*
#441500
b100 5
b100010 8
1*
#442000
0*
#442500
b101 5
b100011 8
1*
#443000
0*
#443500
b101 7
b100 6
b0 8
1*
#444000
0*
#444500
b1 8
1*
#445000
0*
#445500
b10 8
1*
#446000
0*
#446500
b11 8
1*
#447000
0*
#447500
b100 8
1*
#448000
0*
#448500
b101 8
1*
#449000
0*
#449500
0!
b110 8
1*
#450000
0*
#450500
b111 8
1*
#451000
0*
#451500
b1000 8
1*
#452000
0*
#452500
b1001 8
1*
#453000
0*
#453500
b1010 8
1*
#454000
0*
#454500
b1011 8
1*
#455000
0*
#455500
b1100 8
1*
#456000
0*
#456500
b1101 8
1*
#457000
0*
#457500
b1110 8
1*
#458000
0*
#458500
b1111 8
1*
#459000
0*
#459500
b10000 8
1*
#460000
0*
#460500
b10001 8
1*
#461000
0*
#461500
b10010 8
1*
#462000
0*
#462500
b10011 8
1*
#463000
0*
#463500
b10100 8
1*
#464000
0*
#464500
b10101 8
1*
#465000
0*
#465500
b10110 8
1*
#466000
0*
#466500
b10111 8
1*
#467000
0*
#467500
b11000 8
1*
#468000
0*
#468500
b11001 8
1*
#469000
0*
#469500
b11010 8
1*
#470000
0*
#470500
b11011 8
1*
#471000
0*
#471500
b11100 8
1*
#472000
0*
#472500
b11101 8
1*
#473000
0*
#473500
b11110 8
1*
#474000
0*
#474500
b11111 8
1*
#475000
0*
#475500
b100000 8
1*
#476000
0*
#476500
b100001 8
1*
#477000
0*
#477500
b100010 8
1*
#478000
0*
#478500
b100011 8
1*
#479000
0*
#479500
b100100 8
1*
#480000
0*
#480500
b100101 8
1*
#481000
0*
#481500
b100110 8
1*
#482000
0*
#482500
b100111 8
1*
#483000
0*
#483500
b101000 8
1*
#484000
0*
#484500
b101001 8
1*
#485000
0*
#485500
b101010 8
1*
#486000
0*
#486500
b101011 8
1*
#487000
0*
#487500
b101100 8
1*
#488000
0*
#488500
b101101 8
1*
#489000
0*
#489500
b101110 8
1*
#490000
0*
#490500
b101111 8
1*
#491000
0*
#491500
b110000 8
1*
#492000
0*
#492500
b110001 8
1*
#493000
0*
#493500
b110010 8
1*
#494000
0*
#494500
b110011 8
1*
#495000
0*
#495500
b110100 8
1*
#496000
0*
#496500
b110101 8
1*
#497000
0*
#497500
b110110 8
1*
#498000
0*
#498500
b110111 8
1*
#499000
0*
#499500
b110 7
b101 6
b0 8
1*
#500000
0*
#500500
b1000111 )
b1 8
0"
0$
b0 #
b0 4
1*
#501000
0*
#501500
b10 8
1*
#502000
0*
#502500
b11 8
1*
#503000
0*
#503500
b100 8
1*
#504000
0*
#504500
b101 8
1*
#505000
0*
#505500
b110 8
1*
#506000
0*
#506500
b111 8
1*
#507000
0*
#507500
b1000 8
1*
#508000
0*
#508500
b1001 8
1*
#509000
0*
#509500
b1010 8
1*
#510000
0*
#510500
b1011 8
1*
#511000
0*
#511500
b1100 8
1*
#512000
0*
#512500
b1101 8
1*
#513000
0*
#513500
b1110 8
1*
#514000
0*
#514500
b1111 8
1*
#515000
0*
#515500
b10000 8
1*
#516000
0*
#516500
b10001 8
1*
#517000
0*
#517500
b10010 8
1*
#518000
0*
#518500
b10011 8
1*
#519000
0*
#519500
b10100 8
1*
#520000
0*
#520500
b10101 8
1*
#521000
0*
#521500
b10110 8
1*
#522000
0*
#522500
b10111 8
1*
#523000
0*
#523500
b11000 8
1*
#524000
0*
#524500
b11001 8
1*
#525000
0*
#525500
b11010 8
1*
#526000
0*
#526500
b11011 8
1*
#527000
0*
#527500
b11100 8
1*
#528000
0*
#528500
b11101 8
1*
#529000
0*
#529500
b11110 8
1*
#530000
0*
#530500
b111 7
b110 6
b0 8
1*
#531000
0*
#531500
b1011001 )
b1 8
b1 #
b1 4
1*
#532000
0*
#532500
b10 8
1*
#533000
0*
#533500
b11 8
1*
#534000
0*
#534500
b100 8
1*
#535000
0*
#535500
b101 8
1*
#536000
0*
#536500
b1 7
b111 6
b0 8
1*
#537000
0*
#537500
b1010010 )
b1000111 (
b1 8
b10 #
b10 4
b0 %
b0 3
1*
#538000
0*
#538500
b10 8
1*
#539000
0*
#539500
b11 8
1*
#540000
0*
#540500
b100 8
1*
#541000
0*
#541500
b101 8
1*
#542000
0*
#542500
b110 8
1*
#543000
0*
#543500
b111 8
1*
#544000
0*
#544500
b1000 8
1*
#545000
0*
#545500
b1001 8
1*
#546000
0*
#546500
b1010 8
1*
#547000
0*
#547500
b1011 8
1*
#548000
0*
#548500
b1100 8
1*
#549000
0*
#549500
b1101 8
1*
#550000
0*
#550500
b1110 8
1*
#551000
0*
#551500
b1111 8
1*
#552000
0*
#552500
b10000 8
1*
#553000
0*
#553500
b10001 8
1*
#554000
0*
#554500
b10010 8
1*
#555000
0*
#555500
b10011 8
1*
#556000
0*
#556500
b10100 8
1*
#557000
0*
#557500
b10101 8
1*
#558000
0*
#558500
b10110 8
1*
#559000
0*
#559500
b10111 8
1*
#560000
0*
#560500
b11000 8
1*
#561000
0*
#561500
b11001 8
1*
#562000
0*
#562500
b11010 8
1*
#563000
0*
#563500
b11011 8
1*
#564000
0*
#564500
b11100 8
1*
#565000
0*
#565500
b11101 8
1*
#566000
0*
#566500
b11110 8
1*
